- Conflicts of interest
…
We want to see which categories appear together. This requires us to clean up the category column first:

case_categories <- fair_use_cases %>% 
  separate_longer_delim(categories,
                        delim = ";") %>% 
  mutate(categories = str_trim(categories),
         categories = str_to_sentence(categories)) %>% 
  select(case, categories) %>% 
  mutate(n_category = n(),
         .by = categories) %>% 
  filter(n_category >= 10)
case_categories

# A tibble: 516 × 3
   case                                                    categories n_category
   <chr>                                                   <chr>           <int>
 1 De Fontbrune v. Wofsy, 39 F.4th 1214 (9th Cir. 2022)    Education…         56
 2 De Fontbrune v. Wofsy, 39 F.4th 1214 (9th Cir. 2022)    Photograph         56
 3 Sedlik v. Von Drachenberg, No. CV 21-1102 (C.D. Cal. M… Painting/…         31
 4 Sedlik v. Von Drachenberg, No. CV 21-1102 (C.D. Cal. M… Photograph         56
 5 Sketchworks Indus. Strength Comedy, Inc. v. Jacobs, No… Film/audi…         59
 6 Sketchworks Indus. Strength Comedy, Inc. v. Jacobs, No… Music              25
 7 Sketchworks Indus. Strength Comedy, Inc. v. Jacobs, No… Parody/sa…         33
 8 Sketchworks Indus. Strength Comedy, Inc. v. Jacobs, No… Review/co…         41
 9 Am. Soc'y for Testing & Materials v. Public.Resource.O… Education…         56
10 Am. Soc'y for Testing & Materials v. Public.Resource.O… Textual w…         93
# ℹ 506 more rows
…
